Pell Grant Awards
…
According to usnews.com:

The Pell Grant is a form of need-based federal financial aid that typically does not have to be repaid, which makes it highly desirable. It is awarded by the U.S. Department of Education to help eligible low-income students pay for college costs, including tuition, fees, room and board, and other educational expenses.

Load Data

library(tidyverse)

pell <- read_csv('https://raw.githubusercontent.com/rfordatascience/tidytuesday/master/data/2022/2022-08-30/pell.csv') %>% 
    janitor::clean_names()

pell

# A tibble: 100,474 × 6
   state    award recipient name                                   session  year
   <chr>    <dbl>     <dbl> <chr>                                  <chr>   <dbl>
 1 AK     197233.       109 Alaska Pacific University              1999-00  1999
 2 AK     133148.        69 Alaska Vocational Technical Center     1999-00  1999
 3 AK     107287         72 Sheldon Jackson College                1999-00  1999
 4 AK    3425149.      1920 University of Alaska - Anchorage       1999-00  1999
 5 AK    2441864       1256 University of Alaska at Fairbanks      1999-00  1999
 6 AK     353170        221 University of Alaska at Southeast      1999-00  1999
 7 AL    5520921.      2369 Alabama Agricultural & Mechanical Uni… 1999-00  1999
 8 AL    1548659.       837 Alabama Southern Community College     1999-00  1999
 9 AL    7164037.      3236 Alabama State University               1999-00  1999
10 AL    1514341        854 Athens State University                1999-00  1999
# … with 100,464 more rows
# ℹ Use `print(n = ...)` to see more rows
…
Looks like between 1999 to 2006, the grant awarded per student was stagnant below $2,500.Only from 2009 onwards, the grant awarded per student started to increase year-on-year.

Next, I’d like to understand top states that award the largest Pell Grant, in terms of dollar value and number of recipients. Let’s see what they are in 2017.

pell %>% 
    filter(year == 2017) %>% 
    select(state, award, recipient) %>% 
    group_by(state) %>% 
    summarise(total_award = sum(award, na.rm = TRUE),
              total_recipient = sum(recipient)) %>% 
    arrange(-total_recipient)

# A tibble: 59 × 3
   state total_award total_recipient
   <chr>       <dbl>           <dbl>
 1 CA     3849733213          938922
 2 TX     2357765660          577542
 3 FL     2019275162          489360
 4 NY     1985470926          452331
 5 IL     1038490553          263943
 6 AZ      944096562          241733
 7 GA      926976350          228079
 8 PA      900559055          223787
 9 OH      791739717          205307
10 NC      829184523          203071
# … with 49 more rows
# ℹ Use `print(n = ...)` to see more rows
…
